<?xml version="1.0" encoding="utf-8"?>
<!-- Generator: Adobe Illustrator 16.0.0, SVG Export Plug-In . SVG Version: 6.00 Build 0)  -->
<svg version="1.2" baseProfile="tiny" id="Layer_1" xmlns="http://www.w3.org/2000/svg" xmlns:xlink="http://www.w3.org/1999/xlink"
	 x="0px" y="0px" width="24px" height="24px" viewBox="0 0 24 24" xml:space="preserve">
<line fill-rule="evenodd" fill="none" stroke="#746654" stroke-linecap="round" stroke-linejoin="round" stroke-miterlimit="3" x1="4.5" y1="8.5" x2="20.5" y2="8.5"/>
<line fill-rule="evenodd" fill="none" stroke="#746654" stroke-linecap="round" stroke-linejoin="round" stroke-miterlimit="3" x1="7.6" y1="5.55" x2="16.55" y2="5.55"/>
<line fill-rule="evenodd" fill="none" stroke="#746654" stroke-linecap="round" stroke-linejoin="round" stroke-miterlimit="3" x1="5.6" y1="14.5" x2="17.6" y2="14.5"/>
<line fill-rule="evenodd" fill="none" stroke="#746654" stroke-linecap="round" stroke-linejoin="round" stroke-miterlimit="3" x1="5.6" y1="17.5" x2="17.6" y2="17.5"/>
<line fill-rule="evenodd" fill="none" stroke="#746654" stroke-linecap="round" stroke-linejoin="round" stroke-miterlimit="3" x1="14.6" y1="20.5" x2="13.1" y2="20.5"/>
<line fill-rule="evenodd" fill="none" stroke="#746654" stroke-linecap="round" stroke-linejoin="round" stroke-miterlimit="3" x1="12.85" y1="20.5" x2="9.6" y2="20.5"/>
<line fill-rule="evenodd" fill="none" stroke="#746654" stroke-linecap="round" stroke-linejoin="round" stroke-miterlimit="3" x1="15.6" y1="11.5" x2="8.6" y2="11.5"/>
</svg>
