<?xml version="1.0" encoding="utf-8"?>
<!-- Generator: Adobe Illustrator 16.0.0, SVG Export Plug-In . SVG Version: 6.00 Build 0)  -->
<svg version="1.2" baseProfile="tiny" id="Layer_1" xmlns="http://www.w3.org/2000/svg" xmlns:xlink="http://www.w3.org/1999/xlink"
	 x="0px" y="0px" width="16px" height="16px" viewBox="0 0 16 16" xml:space="preserve">
<polyline fill-rule="evenodd" fill="none" stroke="#746654" stroke-width="0.995" stroke-linecap="round" stroke-linejoin="round" stroke-miterlimit="3" points="
	12.95,13 8.025,8.074 3.101,13 "/>
<polyline fill-rule="evenodd" fill="none" stroke="#746654" stroke-width="0.995" stroke-linecap="round" stroke-linejoin="round" stroke-miterlimit="3" points="
	3.05,3.099 8.025,8.074 13,3.099 "/>
</svg>
