<?xml version="1.0" encoding="utf-8"?>
<!-- Generator: Adobe Illustrator 16.0.0, SVG Export Plug-In . SVG Version: 6.00 Build 0)  -->
<svg version="1.2" baseProfile="tiny" id="Layer_1" xmlns="http://www.w3.org/2000/svg" xmlns:xlink="http://www.w3.org/1999/xlink"
	 x="0px" y="0px" width="24px" height="24px" viewBox="0 0 24 24" xml:space="preserve">
<polyline fill-rule="evenodd" fill="none" stroke="#243759" stroke-linecap="round" stroke-linejoin="round" stroke-miterlimit="3" points="
	4.9,6.55 5.55,6.55 5.55,3.5 13.25,3.5 "/>
<polyline fill-rule="evenodd" fill="none" stroke="#243759" stroke-linecap="round" stroke-linejoin="round" stroke-miterlimit="3" points="
	4.65,17.55 2.55,17.55 2.55,6.55 4.65,6.55 "/>
<polyline fill-rule="evenodd" fill="none" stroke="#243759" stroke-linecap="round" stroke-linejoin="round" stroke-miterlimit="3" points="
	18.5,3.5 18.5,6.55 21.55,6.55 21.55,17.55 18.5,17.55 18.5,20.25 "/>
<line fill-rule="evenodd" fill="none" stroke="#243759" stroke-linecap="round" stroke-linejoin="round" stroke-miterlimit="3" x1="18.25" y1="8.5" x2="16.35" y2="8.5"/>
<line fill-rule="evenodd" fill="none" stroke="#243759" stroke-linecap="round" stroke-linejoin="round" stroke-miterlimit="3" x1="18.5" y1="6.55" x2="13.5" y2="6.55"/>
<line fill-rule="evenodd" fill="none" stroke="#243759" stroke-linecap="round" stroke-linejoin="round" stroke-miterlimit="3" x1="18.1" y1="3.5" x2="13.5" y2="3.5"/>
<line fill-rule="evenodd" fill="none" stroke="#243759" stroke-linecap="round" stroke-linejoin="round" stroke-miterlimit="3" x1="5.55" y1="6.55" x2="13.25" y2="6.55"/>
<line fill-rule="evenodd" fill="none" stroke="#243759" stroke-linecap="round" stroke-linejoin="round" stroke-miterlimit="3" x1="18.5" y1="12.55" x2="18.5" y2="17.55"/>
<line fill-rule="evenodd" fill="none" stroke="#243759" stroke-linecap="round" stroke-linejoin="round" stroke-miterlimit="3" x1="14.5" y1="15.55" x2="9.5" y2="15.55"/>
<line fill-rule="evenodd" fill="none" stroke="#243759" stroke-linecap="round" stroke-linejoin="round" stroke-miterlimit="3" x1="14.5" y1="17.55" x2="9.5" y2="17.55"/>
<line fill-rule="evenodd" fill="none" stroke="#243759" stroke-linecap="round" stroke-linejoin="round" stroke-miterlimit="3" x1="18.25" y1="20.5" x2="13.5" y2="20.5"/>
<line fill-rule="evenodd" fill="none" stroke="#243759" stroke-linecap="round" stroke-linejoin="round" stroke-miterlimit="3" x1="18.25" y1="12.55" x2="13.5" y2="12.55"/>
<polyline fill-rule="evenodd" fill="none" stroke="#243759" stroke-linecap="round" stroke-linejoin="round" stroke-miterlimit="3" points="
	4.95,17.55 5.55,17.55 5.55,12.55 "/>
<line fill-rule="evenodd" fill="none" stroke="#243759" stroke-linecap="round" stroke-linejoin="round" stroke-miterlimit="3" x1="5.55" y1="20.5" x2="5.55" y2="17.55"/>
<line fill-rule="evenodd" fill="none" stroke="#243759" stroke-linecap="round" stroke-linejoin="round" stroke-miterlimit="3" x1="13.25" y1="12.55" x2="5.95" y2="12.55"/>
<line fill-rule="evenodd" fill="none" stroke="#243759" stroke-linecap="round" stroke-linejoin="round" stroke-miterlimit="3" x1="13.25" y1="20.5" x2="5.95" y2="20.5"/>
</svg>
