<?xml version="1.0" encoding="utf-8"?>
<!-- Generator: Adobe Illustrator 16.0.0, SVG Export Plug-In . SVG Version: 6.00 Build 0)  -->
<svg version="1.2" baseProfile="tiny" id="Layer_1" xmlns="http://www.w3.org/2000/svg" xmlns:xlink="http://www.w3.org/1999/xlink"
	 x="0px" y="0px" width="16px" height="16px" viewBox="0 0 16 16" xml:space="preserve">
<path fill-rule="evenodd" fill="none" stroke="#A1AFBD" stroke-linecap="round" stroke-linejoin="round" stroke-miterlimit="3" d="
	M4.9,11.1c0.067-0.1,0.033-0.183-0.1-0.25c-0.7-0.767-1.2-1.633-1.5-2.6c-0.1-0.433-0.15-0.9-0.15-1.4
	c0.033-1.533,0.583-2.833,1.65-3.9C5.967,1.817,7.333,1.233,8.9,1.2c1.466,0.033,2.75,0.55,3.85,1.55c0,0.033,0.033,0.05,0.1,0.05
	c1.067,1.167,1.601,2.517,1.601,4.05c0,0.933-0.25,1.85-0.75,2.75c-0.2,0.434-0.483,0.867-0.851,1.301
	c-1.133,1.1-2.466,1.649-4,1.649c-1.167,0-2.316-0.366-3.45-1.1c-0.066-0.101-0.15-0.167-0.25-0.2l-3.7,3.7 M4.95,7
	C5.15,5.5,5.8,4.4,6.9,3.7"/>
</svg>
